<?xml version="1.0" encoding="utf-8"?>
<!-- Generator: Adobe Illustrator 18.1.1, SVG Export Plug-In . SVG Version: 6.00 Build 0)  -->
<svg version="1.1" id="Icons" xmlns="http://www.w3.org/2000/svg" xmlns:xlink="http://www.w3.org/1999/xlink" x="0px" y="0px"
	 viewBox="0 0 22 31.9" enable-background="new 0 0 22 31.9" xml:space="preserve">
<g>
	<path fill="#4DFFBA" d="M3.2,19.1c-4.3-4.4-4.3-11.5,0-15.8C5.3,1.2,8.1,0,11,0c0,0,0,0,0,0c2.9,0,5.7,1.2,7.8,3.3
		c4.3,4.4,4.3,11.5,0,15.8l-1.4-1.4c3.5-3.6,3.5-9.4,0-13C15.7,3,13.4,2,11,2h0C8.6,2,6.3,3,4.6,4.7c-3.5,3.6-3.5,9.4,0,13L3.2,19.1
		z"/>
	<polygon fill="#4DFFBA" points="11,31.9 5.1,22.5 6.8,21.5 11,28.1 15.1,21.5 16.8,22.5 	"/>
	<g>
		<path fill="#4DFFBA" d="M11,17c-3.3,0-6-2.7-6-6s2.7-6,6-6s6,2.7,6,6S14.3,17,11,17z M11,7c-2.2,0-4,1.8-4,4s1.8,4,4,4s4-1.8,4-4
			S13.2,7,11,7z"/>
	</g>
</g>
</svg>
